Identity  : 	id00061
Reference : 	1P5c4NQjGZY
Offset    : 	-1
FV Conf   : 	18.204	(1)
ASD Conf  : 	4.688

FRAME 	X 	Y 	W 	H 
001541 	0.358 	0.124 	0.499 	0.888 
001542 	0.368 	0.124 	0.499 	0.888 
001543 	0.369 	0.125 	0.497 	0.884 
001544 	0.371 	0.125 	0.497 	0.884 
001545 	0.373 	0.125 	0.497 	0.884 
001546 	0.375 	0.125 	0.497 	0.884 
001547 	0.376 	0.124 	0.499 	0.886 
001548 	0.377 	0.125 	0.497 	0.884 
001549 	0.377 	0.126 	0.497 	0.884 
001550 	0.377 	0.126 	0.497 	0.884 
001551 	0.377 	0.126 	0.497 	0.884 
001552 	0.377 	0.127 	0.497 	0.884 
001553 	0.378 	0.127 	0.496 	0.881 
001554 	0.378 	0.131 	0.494 	0.879 
001555 	0.379 	0.134 	0.492 	0.875 
001556 	0.379 	0.135 	0.492 	0.875 
001557 	0.378 	0.137 	0.490 	0.870 
001558 	0.379 	0.138 	0.488 	0.867 
001559 	0.379 	0.140 	0.485 	0.862 
001560 	0.381 	0.141 	0.481 	0.856 
001561 	0.382 	0.142 	0.480 	0.853 
001562 	0.382 	0.141 	0.479 	0.852 
001563 	0.382 	0.138 	0.478 	0.851 
001564 	0.387 	0.142 	0.471 	0.837 
001565 	0.388 	0.140 	0.469 	0.835 
001566 	0.388 	0.139 	0.469 	0.835 
001567 	0.388 	0.138 	0.469 	0.835 
001568 	0.388 	0.138 	0.469 	0.835 
001569 	0.396 	0.135 	0.469 	0.835 
001570 	0.400 	0.129 	0.471 	0.837 
001571 	0.402 	0.129 	0.471 	0.837 
001572 	0.400 	0.128 	0.474 	0.842 
001573 	0.400 	0.123 	0.474 	0.843 
001574 	0.400 	0.120 	0.474 	0.843 
001575 	0.400 	0.116 	0.474 	0.843 
001576 	0.399 	0.115 	0.476 	0.846 
001577 	0.399 	0.115 	0.476 	0.847 
001578 	0.393 	0.114 	0.485 	0.862 
001579 	0.391 	0.114 	0.489 	0.869 
001580 	0.389 	0.118 	0.490 	0.870 
001581 	0.388 	0.117 	0.492 	0.874 
001582 	0.387 	0.117 	0.492 	0.874 
001583 	0.384 	0.116 	0.493 	0.877 
001584 	0.382 	0.115 	0.496 	0.881 
001585 	0.380 	0.116 	0.496 	0.881 
001586 	0.380 	0.127 	0.496 	0.881 
001587 	0.375 	0.131 	0.496 	0.881 
001588 	0.370 	0.131 	0.496 	0.881 
001589 	0.362 	0.131 	0.496 	0.881 
001590 	0.359 	0.131 	0.496 	0.881 
001591 	0.359 	0.132 	0.496 	0.881 
001592 	0.358 	0.132 	0.496 	0.881 
001593 	0.360 	0.136 	0.492 	0.874 
001594 	0.358 	0.137 	0.490 	0.872 
001595 	0.357 	0.135 	0.490 	0.872 
001596 	0.357 	0.135 	0.490 	0.872 
001597 	0.357 	0.135 	0.490 	0.872 
001598 	0.354 	0.135 	0.490 	0.872 
001599 	0.353 	0.134 	0.490 	0.872 
001600 	0.353 	0.136 	0.488 	0.868 
001601 	0.352 	0.136 	0.488 	0.868 
001602 	0.351 	0.137 	0.488 	0.868 
001603 	0.350 	0.136 	0.490 	0.870 
001604 	0.349 	0.135 	0.490 	0.872 
001605 	0.346 	0.136 	0.492 	0.874 
001606 	0.345 	0.137 	0.492 	0.874 
001607 	0.344 	0.141 	0.492 	0.874 
001608 	0.343 	0.142 	0.490 	0.870 
001609 	0.334 	0.142 	0.490 	0.870 
001610 	0.331 	0.142 	0.490 	0.870 
001611 	0.327 	0.143 	0.488 	0.868 
001612 	0.326 	0.144 	0.485 	0.863 
001613 	0.325 	0.144 	0.485 	0.863 
001614 	0.326 	0.141 	0.483 	0.859 
001615 	0.326 	0.141 	0.482 	0.857 
001616 	0.329 	0.142 	0.476 	0.847 
001617 	0.329 	0.136 	0.476 	0.846 
001618 	0.332 	0.137 	0.470 	0.836 
001619 	0.331 	0.133 	0.470 	0.836 
001620 	0.332 	0.126 	0.469 	0.835 
001621 	0.332 	0.126 	0.468 	0.832 
001622 	0.334 	0.125 	0.467 	0.830 
001623 	0.335 	0.125 	0.465 	0.827 
001624 	0.335 	0.125 	0.465 	0.827 
001625 	0.335 	0.125 	0.465 	0.827 
001626 	0.336 	0.125 	0.465 	0.827 
001627 	0.337 	0.125 	0.465 	0.827 
001628 	0.337 	0.124 	0.465 	0.827 
001629 	0.339 	0.124 	0.465 	0.827 
001630 	0.344 	0.124 	0.465 	0.827 
001631 	0.345 	0.125 	0.465 	0.826 
001632 	0.346 	0.125 	0.465 	0.826 
001633 	0.346 	0.126 	0.465 	0.826 
001634 	0.347 	0.128 	0.465 	0.827 
001635 	0.349 	0.128 	0.465 	0.827 
001636 	0.352 	0.128 	0.467 	0.830 
001637 	0.353 	0.130 	0.466 	0.828 
001638 	0.357 	0.131 	0.465 	0.827 
001639 	0.357 	0.133 	0.465 	0.826 
001640 	0.357 	0.133 	0.465 	0.826 
001641 	0.357 	0.133 	0.465 	0.826 
001642 	0.357 	0.133 	0.465 	0.826 
001643 	0.357 	0.133 	0.465 	0.826 
001644 	0.358 	0.133 	0.464 	0.825 
