Identity  : 	id00061
Reference : 	1P5c4NQjGZY
Offset    : 	-1
FV Conf   : 	17.749	(1)
ASD Conf  : 	6.075

FRAME 	X 	Y 	W 	H 
001940 	0.276 	0.137 	0.568 	1.010 
001941 	0.277 	0.130 	0.568 	1.010 
001942 	0.280 	0.130 	0.563 	1.001 
001943 	0.284 	0.128 	0.555 	0.986 
001944 	0.286 	0.127 	0.555 	0.986 
001945 	0.289 	0.112 	0.554 	0.985 
001946 	0.305 	0.108 	0.542 	0.963 
001947 	0.319 	0.101 	0.534 	0.949 
001948 	0.340 	0.083 	0.529 	0.941 
001949 	0.358 	0.070 	0.529 	0.941 
001950 	0.370 	0.058 	0.529 	0.941 
001951 	0.373 	0.061 	0.524 	0.931 
001952 	0.376 	0.063 	0.518 	0.921 
001953 	0.377 	0.064 	0.515 	0.916 
001954 	0.377 	0.064 	0.515 	0.916 
001955 	0.379 	0.061 	0.518 	0.921 
001956 	0.377 	0.056 	0.521 	0.927 
001957 	0.376 	0.055 	0.524 	0.931 
001958 	0.374 	0.052 	0.527 	0.937 
001959 	0.372 	0.054 	0.529 	0.941 
001960 	0.370 	0.055 	0.530 	0.942 
001961 	0.369 	0.054 	0.531 	0.944 
001962 	0.368 	0.056 	0.533 	0.948 
001963 	0.368 	0.055 	0.534 	0.949 
001964 	0.362 	0.059 	0.546 	0.970 
001965 	0.362 	0.064 	0.546 	0.970 
001966 	0.362 	0.069 	0.546 	0.970 
001967 	0.362 	0.074 	0.546 	0.970 
001968 	0.361 	0.092 	0.546 	0.970 
001969 	0.360 	0.093 	0.546 	0.970 
001970 	0.360 	0.095 	0.546 	0.970 
001971 	0.360 	0.095 	0.545 	0.969 
001972 	0.359 	0.095 	0.545 	0.969 
001973 	0.359 	0.095 	0.545 	0.969 
001974 	0.356 	0.095 	0.545 	0.969 
001975 	0.356 	0.095 	0.542 	0.964 
001976 	0.354 	0.095 	0.542 	0.963 
001977 	0.354 	0.096 	0.541 	0.962 
001978 	0.351 	0.095 	0.542 	0.963 
001979 	0.350 	0.095 	0.542 	0.964 
001980 	0.349 	0.095 	0.545 	0.969 
001981 	0.348 	0.094 	0.546 	0.970 
001982 	0.347 	0.093 	0.549 	0.977 
001983 	0.347 	0.093 	0.549 	0.977 
001984 	0.347 	0.094 	0.549 	0.977 
001985 	0.347 	0.097 	0.549 	0.977 
001986 	0.350 	0.100 	0.547 	0.972 
001987 	0.353 	0.103 	0.542 	0.964 
001988 	0.355 	0.103 	0.542 	0.963 
001989 	0.358 	0.103 	0.541 	0.962 
001990 	0.365 	0.110 	0.531 	0.943 
001991 	0.367 	0.110 	0.531 	0.943 
001992 	0.370 	0.110 	0.530 	0.942 
001993 	0.371 	0.110 	0.530 	0.942 
001994 	0.372 	0.110 	0.530 	0.942 
001995 	0.372 	0.110 	0.530 	0.942 
001996 	0.376 	0.110 	0.529 	0.941 
001997 	0.378 	0.112 	0.527 	0.937 
001998 	0.382 	0.117 	0.522 	0.927 
001999 	0.382 	0.118 	0.522 	0.927 
002000 	0.382 	0.125 	0.522 	0.927 
002001 	0.382 	0.125 	0.522 	0.927 
002002 	0.382 	0.128 	0.522 	0.927 
002003 	0.383 	0.130 	0.519 	0.922 
002004 	0.386 	0.133 	0.514 	0.914 
002005 	0.386 	0.133 	0.514 	0.914 
002006 	0.384 	0.133 	0.514 	0.914 
002007 	0.384 	0.134 	0.514 	0.914 
002008 	0.384 	0.134 	0.514 	0.914 
002009 	0.384 	0.134 	0.514 	0.914 
002010 	0.381 	0.135 	0.519 	0.922 
002011 	0.375 	0.137 	0.531 	0.944 
002012 	0.375 	0.138 	0.531 	0.944 
002013 	0.375 	0.138 	0.531 	0.944 
002014 	0.375 	0.138 	0.531 	0.944 
002015 	0.374 	0.138 	0.531 	0.944 
002016 	0.374 	0.138 	0.531 	0.944 
002017 	0.374 	0.138 	0.531 	0.944 
002018 	0.380 	0.145 	0.519 	0.923 
002019 	0.381 	0.145 	0.519 	0.923 
002020 	0.382 	0.147 	0.517 	0.919 
002021 	0.384 	0.147 	0.515 	0.916 
002022 	0.383 	0.146 	0.515 	0.915 
002023 	0.386 	0.151 	0.507 	0.901 
002024 	0.388 	0.150 	0.505 	0.898 
002025 	0.388 	0.147 	0.505 	0.898 
002026 	0.393 	0.151 	0.498 	0.885 
002027 	0.395 	0.150 	0.498 	0.885 
002028 	0.397 	0.151 	0.494 	0.879 
002029 	0.398 	0.143 	0.494 	0.878 
002030 	0.400 	0.126 	0.492 	0.874 
002031 	0.400 	0.104 	0.492 	0.874 
002032 	0.400 	0.104 	0.493 	0.877 
002033 	0.400 	0.104 	0.493 	0.877 
002034 	0.401 	0.104 	0.492 	0.875 
002035 	0.401 	0.103 	0.492 	0.874 
002036 	0.401 	0.101 	0.492 	0.874 
002037 	0.401 	0.101 	0.492 	0.874 
002038 	0.402 	0.102 	0.490 	0.872 
002039 	0.401 	0.102 	0.492 	0.874 
002040 	0.401 	0.103 	0.492 	0.874 
002041 	0.399 	0.102 	0.492 	0.875 
002042 	0.399 	0.103 	0.493 	0.877 
002043 	0.396 	0.101 	0.498 	0.885 
002044 	0.394 	0.099 	0.501 	0.890 
002045 	0.394 	0.099 	0.501 	0.890 
002046 	0.395 	0.103 	0.498 	0.885 
002047 	0.395 	0.104 	0.498 	0.885 
002048 	0.395 	0.104 	0.498 	0.885 
002049 	0.394 	0.104 	0.498 	0.885 
002050 	0.393 	0.104 	0.498 	0.885 
002051 	0.391 	0.104 	0.501 	0.890 
002052 	0.390 	0.104 	0.501 	0.891 
002053 	0.390 	0.105 	0.501 	0.891 
002054 	0.389 	0.105 	0.501 	0.891 
002055 	0.389 	0.105 	0.501 	0.891 
002056 	0.388 	0.105 	0.501 	0.891 
002057 	0.388 	0.105 	0.501 	0.891 
002058 	0.388 	0.104 	0.503 	0.894 
002059 	0.387 	0.105 	0.504 	0.896 
002060 	0.386 	0.110 	0.504 	0.896 
002061 	0.386 	0.110 	0.504 	0.896 
002062 	0.386 	0.114 	0.504 	0.896 
002063 	0.386 	0.118 	0.504 	0.896 
002064 	0.386 	0.121 	0.504 	0.896 
002065 	0.386 	0.125 	0.504 	0.896 
002066 	0.387 	0.132 	0.504 	0.896 
002067 	0.387 	0.133 	0.504 	0.896 
002068 	0.386 	0.133 	0.506 	0.899 
002069 	0.387 	0.133 	0.506 	0.899 
002070 	0.388 	0.133 	0.506 	0.899 
002071 	0.388 	0.133 	0.506 	0.899 
002072 	0.388 	0.133 	0.506 	0.899 
002073 	0.388 	0.135 	0.506 	0.900 
002074 	0.386 	0.133 	0.509 	0.905 
002075 	0.384 	0.129 	0.515 	0.915 
002076 	0.381 	0.124 	0.520 	0.925 
002077 	0.383 	0.124 	0.520 	0.925 
002078 	0.373 	0.112 	0.540 	0.960 
002079 	0.375 	0.112 	0.540 	0.960 
002080 	0.376 	0.112 	0.540 	0.960 
002081 	0.377 	0.112 	0.540 	0.960 
002082 	0.378 	0.112 	0.540 	0.960 
002083 	0.379 	0.112 	0.540 	0.960 
002084 	0.379 	0.112 	0.540 	0.960 
002085 	0.382 	0.113 	0.538 	0.957 
002086 	0.382 	0.113 	0.538 	0.957 
002087 	0.384 	0.116 	0.534 	0.949 
002088 	0.384 	0.116 	0.534 	0.949 
002089 	0.384 	0.116 	0.534 	0.949 
002090 	0.385 	0.116 	0.531 	0.944 
002091 	0.386 	0.116 	0.531 	0.943 
002092 	0.387 	0.119 	0.525 	0.933 
002093 	0.383 	0.117 	0.525 	0.933 
002094 	0.383 	0.117 	0.525 	0.933 
002095 	0.383 	0.115 	0.525 	0.933 
002096 	0.382 	0.116 	0.522 	0.928 
002097 	0.381 	0.116 	0.522 	0.928 
002098 	0.380 	0.113 	0.522 	0.928 
002099 	0.382 	0.115 	0.519 	0.922 
002100 	0.382 	0.114 	0.516 	0.917 
002101 	0.381 	0.108 	0.516 	0.917 
002102 	0.384 	0.111 	0.510 	0.907 
002103 	0.384 	0.111 	0.510 	0.907 
002104 	0.383 	0.111 	0.510 	0.907 
002105 	0.380 	0.108 	0.516 	0.917 
002106 	0.378 	0.108 	0.516 	0.917 
002107 	0.378 	0.108 	0.516 	0.917 
002108 	0.377 	0.112 	0.516 	0.917 
002109 	0.375 	0.123 	0.519 	0.923 
002110 	0.374 	0.123 	0.521 	0.926 
002111 	0.371 	0.123 	0.521 	0.926 
002112 	0.368 	0.126 	0.521 	0.926 
002113 	0.367 	0.129 	0.521 	0.926 
002114 	0.367 	0.130 	0.522 	0.928 
002115 	0.364 	0.127 	0.527 	0.937 
002116 	0.362 	0.127 	0.530 	0.942 
002117 	0.366 	0.130 	0.522 	0.928 
002118 	0.366 	0.131 	0.521 	0.926 
002119 	0.366 	0.129 	0.521 	0.926 
002120 	0.366 	0.130 	0.519 	0.923 
002121 	0.369 	0.135 	0.514 	0.914 
002122 	0.369 	0.135 	0.514 	0.914 
002123 	0.367 	0.135 	0.514 	0.914 
002124 	0.362 	0.130 	0.523 	0.930 
002125 	0.356 	0.124 	0.530 	0.942 
002126 	0.355 	0.123 	0.530 	0.942 
002127 	0.355 	0.121 	0.530 	0.942 
002128 	0.352 	0.121 	0.530 	0.942 
002129 	0.351 	0.121 	0.531 	0.943 
002130 	0.349 	0.121 	0.531 	0.943 
002131 	0.349 	0.121 	0.531 	0.943 
002132 	0.349 	0.120 	0.531 	0.943 
002133 	0.349 	0.119 	0.531 	0.943 
002134 	0.349 	0.117 	0.531 	0.943 
002135 	0.349 	0.113 	0.531 	0.943 
002136 	0.349 	0.113 	0.531 	0.943 
002137 	0.352 	0.115 	0.528 	0.940 
002138 	0.354 	0.115 	0.528 	0.940 
002139 	0.355 	0.114 	0.528 	0.938 
002140 	0.358 	0.114 	0.528 	0.938 
002141 	0.362 	0.113 	0.525 	0.933 
002142 	0.365 	0.115 	0.521 	0.926 
002143 	0.366 	0.116 	0.520 	0.925 
002144 	0.369 	0.119 	0.515 	0.916 
002145 	0.369 	0.119 	0.515 	0.916 
002146 	0.367 	0.119 	0.519 	0.922 
002147 	0.367 	0.119 	0.519 	0.922 
002148 	0.367 	0.125 	0.519 	0.922 
002149 	0.367 	0.125 	0.519 	0.922 
