Identity  : 	id00061
Reference : 	1P5c4NQjGZY
Offset    : 	-1
FV Conf   : 	15.917	(1)
ASD Conf  : 	5.772

FRAME 	X 	Y 	W 	H 
000651 	0.443 	0.209 	0.474 	0.842 
000652 	0.444 	0.208 	0.471 	0.837 
000653 	0.445 	0.206 	0.470 	0.836 
000654 	0.438 	0.204 	0.470 	0.836 
000655 	0.437 	0.200 	0.470 	0.836 
000656 	0.436 	0.198 	0.471 	0.837 
000657 	0.436 	0.196 	0.471 	0.837 
000658 	0.436 	0.194 	0.471 	0.837 
000659 	0.436 	0.193 	0.471 	0.837 
000660 	0.436 	0.192 	0.470 	0.836 
000661 	0.438 	0.192 	0.465 	0.827 
000662 	0.440 	0.191 	0.465 	0.826 
000663 	0.447 	0.180 	0.463 	0.822 
000664 	0.448 	0.167 	0.461 	0.820 
000665 	0.457 	0.166 	0.461 	0.820 
000666 	0.463 	0.166 	0.460 	0.817 
000667 	0.465 	0.168 	0.457 	0.812 
000668 	0.465 	0.168 	0.457 	0.812 
000669 	0.465 	0.168 	0.457 	0.812 
000670 	0.465 	0.168 	0.457 	0.812 
000671 	0.465 	0.168 	0.457 	0.812 
000672 	0.465 	0.170 	0.457 	0.812 
000673 	0.463 	0.173 	0.460 	0.819 
000674 	0.462 	0.171 	0.463 	0.822 
000675 	0.456 	0.173 	0.463 	0.822 
000676 	0.452 	0.175 	0.463 	0.822 
000677 	0.446 	0.175 	0.463 	0.822 
000678 	0.437 	0.180 	0.462 	0.821 
000679 	0.430 	0.180 	0.462 	0.821 
000680 	0.428 	0.181 	0.462 	0.821 
000681 	0.426 	0.181 	0.462 	0.821 
000682 	0.422 	0.182 	0.462 	0.821 
000683 	0.418 	0.182 	0.462 	0.821 
000684 	0.417 	0.182 	0.462 	0.821 
000685 	0.417 	0.183 	0.462 	0.821 
000686 	0.416 	0.183 	0.462 	0.821 
000687 	0.415 	0.188 	0.462 	0.821 
000688 	0.414 	0.198 	0.463 	0.823 
000689 	0.412 	0.198 	0.467 	0.830 
000690 	0.409 	0.200 	0.471 	0.837 
000691 	0.402 	0.192 	0.484 	0.860 
000692 	0.401 	0.191 	0.485 	0.863 
000693 	0.397 	0.189 	0.490 	0.870 
000694 	0.393 	0.187 	0.492 	0.875 
000695 	0.389 	0.187 	0.492 	0.875 
000696 	0.389 	0.187 	0.492 	0.875 
000697 	0.386 	0.184 	0.492 	0.875 
000698 	0.384 	0.182 	0.492 	0.874 
000699 	0.377 	0.180 	0.492 	0.874 
000700 	0.376 	0.179 	0.492 	0.874 
000701 	0.371 	0.172 	0.495 	0.880 
000702 	0.370 	0.170 	0.497 	0.884 
000703 	0.367 	0.166 	0.497 	0.884 
000704 	0.367 	0.164 	0.497 	0.884 
000705 	0.367 	0.164 	0.495 	0.880 
000706 	0.368 	0.166 	0.492 	0.874 
000707 	0.368 	0.165 	0.492 	0.874 
000708 	0.368 	0.165 	0.490 	0.872 
000709 	0.369 	0.165 	0.489 	0.869 
000710 	0.370 	0.165 	0.487 	0.865 
000711 	0.370 	0.163 	0.486 	0.864 
000712 	0.371 	0.163 	0.486 	0.864 
000713 	0.372 	0.164 	0.485 	0.863 
000714 	0.373 	0.163 	0.485 	0.863 
000715 	0.374 	0.164 	0.484 	0.860 
000716 	0.376 	0.162 	0.481 	0.854 
000717 	0.377 	0.160 	0.481 	0.854 
000718 	0.381 	0.159 	0.481 	0.854 
000719 	0.388 	0.156 	0.481 	0.854 
000720 	0.388 	0.155 	0.482 	0.857 
000721 	0.387 	0.153 	0.484 	0.860 
000722 	0.388 	0.151 	0.486 	0.864 
000723 	0.388 	0.151 	0.486 	0.864 
000724 	0.390 	0.141 	0.483 	0.859 
000725 	0.391 	0.141 	0.483 	0.859 
000726 	0.391 	0.141 	0.483 	0.859 
000727 	0.392 	0.142 	0.482 	0.857 
000728 	0.392 	0.152 	0.483 	0.859 
000729 	0.388 	0.149 	0.492 	0.874 
000730 	0.389 	0.154 	0.492 	0.875 
000731 	0.388 	0.156 	0.494 	0.879 
000732 	0.387 	0.159 	0.494 	0.879 
000733 	0.387 	0.161 	0.494 	0.879 
000734 	0.387 	0.161 	0.494 	0.879 
000735 	0.385 	0.159 	0.499 	0.886 
000736 	0.384 	0.157 	0.502 	0.893 
000737 	0.384 	0.157 	0.502 	0.893 
000738 	0.381 	0.157 	0.502 	0.893 
000739 	0.380 	0.156 	0.503 	0.895 
000740 	0.380 	0.155 	0.504 	0.896 
000741 	0.379 	0.155 	0.505 	0.898 
000742 	0.379 	0.155 	0.505 	0.898 
000743 	0.380 	0.154 	0.504 	0.896 
000744 	0.380 	0.154 	0.504 	0.896 
000745 	0.380 	0.153 	0.504 	0.896 
000746 	0.379 	0.145 	0.508 	0.902 
000747 	0.379 	0.137 	0.509 	0.905 
000748 	0.379 	0.135 	0.512 	0.910 
000749 	0.379 	0.133 	0.515 	0.915 
000750 	0.379 	0.133 	0.515 	0.916 
000751 	0.382 	0.132 	0.517 	0.919 
000752 	0.381 	0.129 	0.522 	0.927 
000753 	0.381 	0.129 	0.522 	0.927 
000754 	0.381 	0.142 	0.522 	0.927 
000755 	0.381 	0.152 	0.522 	0.927 
000756 	0.381 	0.171 	0.522 	0.927 
000757 	0.381 	0.171 	0.522 	0.927 
000758 	0.382 	0.171 	0.522 	0.927 
000759 	0.384 	0.173 	0.519 	0.922 
000760 	0.385 	0.175 	0.517 	0.920 
000761 	0.392 	0.186 	0.503 	0.895 
000762 	0.392 	0.190 	0.503 	0.894 
000763 	0.392 	0.195 	0.503 	0.894 
000764 	0.392 	0.195 	0.503 	0.894 
